// Jest Snapshot v1, https://goo.gl/fbAQLP

exports[`<Logo /> should render 1`] = `
<Box
  alignItems="center"
  d="flex"
  maxHeight="20px"
>
  <Image
    mr={1}
    src="/assets/icon.svg"
  />
  <Image
    src="/assets/slug.svg"
  />
</Box>
`;
